{
  "import_and_integrate": {
    "name": "Import and Integrate",
    "section": "dev",
    "stage": "manage",
    "categories": [
      "api",
      "integrations",
      "webhooks",
      "importers",
      "internationalization"
    ],
    "label": "group::import and integrate"
  },
  "foundations": {
    "name": "Foundations",
    "section": "dev",
    "stage": "manage",
    "categories": [
      "design_system",
      "gitlab_docs",
      "navigation"
    ],
    "label": "group::foundations"
  },
  "project_management": {
    "name": "Project Management",
    "section": "dev",
    "stage": "plan",
    "categories": [
      "team_planning"
    ],
    "label": "group::project management"
  },
  "product_planning": {
    "name": "Product Planning",
    "section": "dev",
    "stage": "plan",
    "categories": [
      "portfolio_management",
      "design_management",
      "requirements_management",
      "quality_management"
    ],
    "label": "group::product planning"
  },
  "knowledge": {
    "name": "Knowledge",
    "section": "dev",
    "stage": "plan",
    "categories": [
      "wiki",
      "pages"
    ],
    "label": "group::knowledge"
  },
  "optimize": {
    "name": "Optimize",
    "section": "dev",
    "stage": "plan",
    "categories": [
      "value_stream_management",
      "dora_metrics",
      "devops_reports"
    ],
    "label": "group::optimize"
  },
  "source_code": {
    "name": "Source Code",
    "section": "dev",
    "stage": "create",
    "categories": [
      "source_code_management"
    ],
    "label": "group::source code"
  },
  "code_review": {
    "name": "Code Review",
    "section": "dev",
    "stage": "create",
    "categories": [
      "code_review_workflow",
      "gitlab_cli"
    ],
    "label": "group::code review"
  },
  "ide": {
    "name": "IDE",
    "section": "dev",
    "stage": "create",
    "categories": [
      "web_ide",
      "remote_development"
    ],
    "label": "group::ide"
  },
  "editor_extensions": {
    "name": "Editor Extensions",
    "section": "dev",
    "stage": "create",
    "categories": [
      "editor_extensions"
    ],
    "label": "group::editor extensions"
  },
  "code_creation": {
    "name": "Code Creation",
    "section": "dev",
    "stage": "create",
    "categories": [
      "code_suggestions"
    ],
    "label": "group::code creation"
  },
  "pipeline_execution": {
    "name": "Pipeline Execution",
    "section": "ci",
    "stage": "verify",
    "categories": [
      "continuous_integration",
      "merge_trains",
      "code_testing",
      "review_apps",
      "ci-cd_visibility"
    ],
    "label": "group::pipeline execution"
  },
  "pipeline_authoring": {
    "name": "Pipeline Authoring",
    "section": "ci",
    "stage": "verify",
    "categories": [
      "pipeline_composition"
    ],
    "label": "group::pipeline authoring"
  },
  "runner": {
    "name": "Runner",
    "section": "ci",
    "stage": "verify",
    "categories": [
      "runner",
      "runner_fleet"
    ],
    "label": "group::runner"
  },
  "runner_saas": {
    "name": "Runner SaaS",
    "section": "ci",
    "stage": "verify",
    "categories": [
      "runner_saas"
    ],
    "label": "group::runner saas"
  },
  "pipeline_security": {
    "name": "Pipeline Security",
    "section": "ci",
    "stage": "verify",
    "categories": [
      "build_artifacts",
      "secrets_management"
    ],
    "label": "group::pipeline security"
  },
  "package_registry": {
    "name": "Package Registry",
    "section": "ci",
    "stage": "package",
    "categories": [
      "package_registry",
      "helm_chart_registry"
    ],
    "label": "group::package registry"
  },
  "container_registry": {
    "name": "Container Registry",
    "section": "ci",
    "stage": "package",
    "categories": [
      "container_registry",
      "dependency_proxy",
      "dependency_firewall"
    ],
    "label": "group::container registry"
  },
  "static_analysis": {
    "name": "Static Analysis",
    "section": "sec",
    "stage": "secure",
    "categories": [
      "static_application_security_testing",
      "secret_detection",
      "code_quality"
    ],
    "label": "group::static analysis"
  },
  "dynamic_analysis": {
    "name": "Dynamic Analysis",
    "section": "sec",
    "stage": "secure",
    "categories": [
      "dynamic_application_security_testing",
      "fuzz_testing",
      "api_security",
      "attack_emulation"
    ],
    "label": "group::dynamic analysis"
  },
  "composition_analysis": {
    "name": "Composition Analysis",
    "section": "sec",
    "stage": "secure",
    "categories": [
      "software_composition_analysis",
      "container_scanning"
    ],
    "label": "group::composition analysis"
  },
  "vulnerability_research": {
    "name": "Vulnerability Research",
    "section": "sec",
    "stage": "secure",
    "categories": [
      "advisory_database"
    ],
    "label": "group::vulnerability research"
  },
  "environments": {
    "name": "Environments",
    "section": "cd",
    "stage": "deploy",
    "categories": [
      "auto_devops",
      "continuous_delivery",
      "deployment_management",
      "environment_management",
      "feature_flags",
      "infrastructure_as_code",
      "release_orchestration"
    ],
    "label": "group::environments"
  },
  "respond": {
    "name": "Respond",
    "section": "sec",
    "stage": "monitor",
    "categories": [
      "incident_management",
      "on_call_schedule_management",
      "service_desk"
    ],
    "label": "group::respond"
  },
  "authentication_and_authorization": {
    "name": "Authentication and Authorization",
    "section": "sec",
    "stage": "govern",
    "categories": [
      "user_management",
      "system_access"
    ],
    "label": "group::authentication and authorization"
  },
  "security_policies": {
    "name": "Security Policies",
    "section": "sec",
    "stage": "govern",
    "categories": [
      "security_policy_management"
    ],
    "label": "group::security policies"
  },
  "threat_insights": {
    "name": "Threat Insights",
    "section": "sec",
    "stage": "govern",
    "categories": [
      "vulnerability_management",
      "dependency_management",
      "sbom"
    ],
    "label": "group::threat insights"
  },
  "compliance": {
    "name": "Compliance",
    "section": "sec",
    "stage": "govern",
    "categories": [
      "audit_events",
      "compliance_management",
      "release_evidence"
    ],
    "label": "group::compliance"
  },
  "anti-abuse": {
    "name": "Anti-Abuse",
    "section": "sec",
    "stage": "govern",
    "categories": [
      "instance_resiliency",
      "insider_threat"
    ],
    "label": "group::anti-abuse"
  },
  "analytics_instrumentation": {
    "name": "Analytics Instrumentation",
    "section": "analytics",
    "stage": "analyze",
    "categories": [
      "service_ping",
      "application_instrumentation"
    ],
    "label": "group::analytics instrumentation"
  },
  "product_analytics": {
    "name": "Product Analytics",
    "section": "analytics",
    "stage": "analyze",
    "categories": [
      "product_analytics_visualization",
      "product_analytics_data_management"
    ],
    "label": "group::product analytics"
  },
  "observability": {
    "name": "Observability",
    "section": "analytics",
    "stage": "analyze",
    "categories": [
      "metrics",
      "tracing",
      "logging",
      "error_tracking"
    ],
    "label": "group::observability"
  },
  "purchase": {
    "name": "Purchase",
    "section": "fulfillment",
    "stage": "fulfillment",
    "categories": [
      "purchase",
      "seat_cost_management"
    ],
    "label": "group::purchase"
  },
  "provision": {
    "name": "Provision",
    "section": "fulfillment",
    "stage": "fulfillment",
    "categories": [
      "sm_provisioning",
      "saas_provisioning",
      "commerce_integrations"
    ],
    "label": "group::provision"
  },
  "utilization": {
    "name": "Utilization",
    "section": "fulfillment",
    "stage": "fulfillment",
    "categories": [
      "consumables_cost_management"
    ],
    "label": "group::utilization"
  },
  "fulfillment_platform": {
    "name": "Fulfillment Platform",
    "section": "fulfillment",
    "stage": "fulfillment",
    "categories": [
      "fulfillment_infrastructure",
      "customersdot_application",
      "fulfillment_admin_tooling"
    ],
    "label": "group::fulfillment platform"
  },
  "billing_and_subscription_management": {
    "name": "Billing and Subscription Management",
    "section": "fulfillment",
    "stage": "fulfillment",
    "categories": [
      "billing_and_payments",
      "subscription_management"
    ],
    "label": "group::billing and subscription management"
  },
  "acquisition": {
    "name": "Acquisition",
    "section": "growth",
    "stage": "growth",
    "categories": [
      "acquisition",
      "measurement_and_locking",
      "onboarding"
    ],
    "label": "group::acquisition"
  },
  "activation": {
    "name": "Activation",
    "section": "growth",
    "stage": "growth",
    "categories": [
      "activation"
    ],
    "label": "group::activation"
  },
  "distribution_build": {
    "name": "Distribution::Build",
    "section": "enablement",
    "stage": "systems",
    "categories": [
      "build"
    ],
    "label": "group::distribution::build"
  },
  "distribution_deploy": {
    "name": "Distribution::Deploy",
    "section": "enablement",
    "stage": "systems",
    "categories": [
      "omnibus_package",
      "cloud_native_installation"
    ],
    "label": "group::distribution::deploy"
  },
  "gitaly_cluster": {
    "name": "Gitaly::Cluster",
    "section": "enablement",
    "stage": "systems",
    "categories": [
      "gitaly"
    ],
    "label": "group::gitaly::cluster"
  },
  "gitaly_git": {
    "name": "Gitaly::Git",
    "section": "enablement",
    "stage": "systems",
    "categories": [
      "gitaly"
    ],
    "label": "group::gitaly::git"
  },
  "geo": {
    "name": "Geo",
    "section": "enablement",
    "stage": "systems",
    "categories": [
      "geo_replication",
      "disaster_recovery",
      "backup_restore"
    ],
    "label": "group::geo"
  },
  "cloud_connector": {
    "name": "Cloud Connector",
    "section": "enablement",
    "stage": "data_stores",
    "categories": [
      "cloud_connector"
    ],
    "label": "group::cloud connector"
  },
  "global_search": {
    "name": "Global Search",
    "section": "enablement",
    "stage": "data_stores",
    "categories": [
      "global_search",
      "code_search"
    ],
    "label": "group::global search"
  },
  "database": {
    "name": "Database",
    "section": "enablement",
    "stage": "data_stores",
    "categories": [
      "database"
    ],
    "label": "group::database"
  },
  "tenant_scale": {
    "name": "Tenant Scale",
    "section": "enablement",
    "stage": "data_stores",
    "categories": [
      "cell",
      "groups_and_projects",
      "user_profile",
      "organization"
    ],
    "label": "group::tenant scale"
  },
  "delivery": {
    "name": "Delivery",
    "section": "platforms",
    "stage": "platforms",
    "categories": [
      "delivery"
    ],
    "label": "group::delivery"
  },
  "scalability": {
    "name": "Scalability",
    "section": "platforms",
    "stage": "platforms",
    "categories": [
      "scalability",
      "error_budgets",
      "infrastructure_cost_data",
      "capacity_planning",
      "redis",
      "rate_limiting"
    ],
    "label": "group::scalability"
  },
  "dedicated": {
    "name": "GitLab Dedicated",
    "section": "platforms",
    "stage": "platforms",
    "categories": [
      "dedicated"
    ],
    "label": "group::dedicated"
  },
  "switchboard": {
    "name": "Switchboard",
    "section": "platforms",
    "stage": "platforms",
    "categories": [
      "switchboard"
    ],
    "label": "group::switchboard"
  },
  "pubsec_services": {
    "name": "US Public Sector Services",
    "section": "platforms",
    "stage": "platforms",
    "categories": [
      "pubsec_services"
    ],
    "label": "group::pubsec services"
  },
  "mlops": {
    "name": "MLOps",
    "section": "data-science",
    "stage": "modelops",
    "categories": [
      "mlops"
    ],
    "label": "group::mlops"
  },
  "dataops": {
    "name": "DataOps",
    "section": "data-science",
    "stage": "modelops",
    "categories": [
      "dataops"
    ],
    "label": "group::dataops"
  },
  "ai_framework": {
    "name": "AI Framework",
    "section": "data-science",
    "stage": "ai-powered",
    "categories": [
      "ai_abstraction_layer"
    ],
    "label": "group::ai framework"
  },
  "ai_model_validation": {
    "name": "AI Model Validation",
    "section": "data-science",
    "stage": "ai-powered",
    "categories": [
      "ai_evaluation",
      "ai_research"
    ],
    "label": "group::ai model validation"
  },
  "duo_chat": {
    "name": "Duo Chat",
    "section": "data-science",
    "stage": "ai-powered",
    "categories": [
      "duo_chat"
    ],
    "label": "group::duo chat"
  },
  "mobile_devops": {
    "name": "Mobile DevOps",
    "section": "seg",
    "stage": "mobile",
    "categories": [
      "mobile_devops"
    ],
    "label": "group::mobile devops"
  },
  "5-min-app": {
    "name": "Five Minute Production App",
    "section": "seg",
    "stage": "5-min-app",
    "categories": [
      "five_minute_production_app"
    ],
    "label": "group::5-min-app"
  },
  "no_code_automation": {
    "name": "No-code Automation",
    "section": "seg",
    "stage": "no_code",
    "categories": [
      "no_code_automation"
    ],
    "label": "group::no code automation"
  }
}
